{
    "Command": {
        "alertmanager_healthy": {
            "arguments": {
                "--header": {
                    "repeat_key": false,
                    "required": false,
                    "skip_key": false,
                    "value": "Authorization: Bearer $alertmanager_token$"
                },
                "-H": {
                    "repeat_key": false,
                    "required": false,
                    "skip_key": false,
                    "value": "$host.name$"
                },
                "-S": {
                    "repeat_key": false,
                    "required": true,
                    "skip_key": false
                },
                "-s": {
                    "repeat_key": false,
                    "required": true,
                    "skip_key": false,
                    "value": "ready"
                },
                "-u": {
                    "description": "Alertmanager API URL endpoint",
                    "repeat_key": false,
                    "required": true,
                    "skip_key": false,
                    "value": "$alertmanager_server_uri$api/v2/status"
                }
            },
            "fields": [
                {
                    "datafield_id": 16,
                    "is_required": "y",
                    "var_filter": null
                },
                {
                    "datafield_id": 17,
                    "is_required": "n",
                    "var_filter": null
                }
            ],
            "imports": [
                "http"
            ],
            "is_string": false,
            "methods_execute": "PluginCheck",
            "object_name": "alertmanager_healthy",
            "object_type": "object",
            "uuid": "9448c44e-6c89-43fa-b31f-f61b14ff7472",
            "vars": {
                "alertmanager_server_uri": "/"
            }
        },
        "alertmanager": {
            "arguments": {
                "-a": {
                    "repeat_key": false,
                    "required": true,
                    "skip_key": false,
                    "value": "$alertmanager_alertname$"
                },
                "-q": {
                    "description": "Alertmanager Query",
                    "repeat_key": false,
                    "required": false,
                    "skip_key": false,
                    "value": "$alertmanager_query$"
                },
                "-s": {
                    "description": "Alertmanager API URL endpoint",
                    "repeat_key": false,
                    "required": true,
                    "skip_key": false,
                    "value": "https://$host.name$$alertmanager_server_uri$"
                },
                "-t": {
                    "description": "Token",
                    "repeat_key": false,
                    "required": false,
                    "skip_key": false,
                    "value": "$alertmanager_token$"
                }
            },
            "command": "check_alertmanager",
            "fields": [
                {
                    "datafield_id": 19,
                    "is_required": "y",
                    "var_filter": null
                },
                {
                    "datafield_id": 20,
                    "is_required": "n",
                    "var_filter": null
                },
                {
                    "datafield_id": 16,
                    "is_required": "y",
                    "var_filter": null
                },
                {
                    "datafield_id": 17,
                    "is_required": "n",
                    "var_filter": null
                }
            ],
            "is_string": false,
            "methods_execute": "PluginCheck",
            "object_name": "alertmanager",
            "object_type": "object",
            "uuid": "e3f88ef6-2706-45f9-817f-f8e7575433a7",
            "vars": {
                "alertmanager_server_uri": "/"
            }
        }
    },
    "HostGroup": {
        "Alertmanager": {
            "display_name": "Alertmanager",
            "object_name": "Alertmanager",
            "object_type": "object",
            "uuid": "f5ae20b5-d451-41ee-9b4f-7ae552f87a23"
        }
    },
    "HostTemplate": {
        "Alertmanager API": {
            "check_command": "dummy",
            "fields": [
                {
                    "datafield_id": 16,
                    "is_required": "n",
                    "var_filter": null
                },
                {
                    "datafield_id": 17,
                    "is_required": "n",
                    "var_filter": null
                },
                {
                    "datafield_id": 18,
                    "is_required": "n",
                    "var_filter": null
                }
            ],
            "groups": [
                "Alertmanager"
            ],
            "object_name": "Alertmanager API",
            "object_type": "template",
            "uuid": "d5a5f4ce-2ec6-4b88-b9d3-0f8080b82ed5",
            "vars": {
                "alertmanager_server_uri": "/",
                "alertmanager_token": "$kubernetes_token$"
            }
        }
    },
    "ServiceGroup": {
        "Kubernetes Application": {
            "display_name": "Kubernetes Application",
            "object_name": "Kubernetes Application",
            "object_type": "object",
            "uuid": "65bf9fb9-117c-44da-bbf5-2ee3f1a5b2bb"
        },
        "Kubernetes": {
            "display_name": "Kubernetes",
            "object_name": "Kubernetes",
            "object_type": "object",
            "uuid": "cce94d03-c9c5-4537-9f4f-b370f75dc386"
        },
        "Alertmanager": {
            "display_name": "Alertmanager",
            "object_name": "Alertmanager",
            "object_type": "object",
            "uuid": "763820fb-125e-4757-8c0f-01a47e73de31"
        }
    },
    "ServiceTemplate": {
        "Alertmanager Alert": {
            "check_command": "alertmanager",
            "enable_event_handler": true,
            "enable_flapping": false,
            "enable_perfdata": false,
            "fields": [
                {
                    "datafield_id": 19,
                    "is_required": "y",
                    "var_filter": null
                },
                {
                    "datafield_id": 20,
                    "is_required": "n",
                    "var_filter": null
                },
                {
                    "datafield_id": 16,
                    "is_required": "n",
                    "var_filter": null
                },
                {
                    "datafield_id": 17,
                    "is_required": "n",
                    "var_filter": null
                }
            ],
            "groups": [
                "Kubernetes Application"
            ],
            "max_check_attempts": "2",
            "object_name": "Alertmanager Alert",
            "object_type": "template",
            "use_agent": false,
            "uuid": "39c019fe-859c-4909-91df-567a48206b92",
            "vars": {
                "alertmanager_server_uri": "$host.vars.alertmanager_server_uri$",
                "alertmanager_token": "$host.vars.alertmanager_token$"
            },
            "volatile": false
        },
        "Alertmanager API Health": {
            "check_command": "alertmanager_healthy",
            "fields": [
                {
                    "datafield_id": 16,
                    "is_required": "n",
                    "var_filter": null
                },
                {
                    "datafield_id": 17,
                    "is_required": "n",
                    "var_filter": null
                }
            ],
            "groups": [
                "Alertmanager"
            ],
            "object_name": "Alertmanager API Health",
            "object_type": "template",
            "uuid": "51128adf-f6b3-47b0-b36a-447f1c3e0c0e"
        },
        "Alertmanager Watchdog": {
            "fields": [],
            "groups": [
                "Alertmanager"
            ],
            "imports": [
                "Alertmanager Alert"
            ],
            "object_name": "Alertmanager Watchdog",
            "object_type": "template",
            "uuid": "618ce915-9aae-4e32-9cb8-bcb8401c0861",
            "vars": {
                "alertmanager_alertname": "Watchdog",
                "alertmanager_query": "namespace=~\".*\""
            }
        }
    },
    "ServiceSet": {
        "Alertmanager": {
            "assign_filter": "host.templates=%5B%22alertmanager%22%5D",
            "object_name": "Alertmanager",
            "object_type": "template",
            "services": [
                {
                    "fields": [],
                    "imports": [
                        "Alertmanager API Health"
                    ],
                    "object_name": "Alertmanager API Health",
                    "object_type": "object",
                    "uuid": "004e6745-0b9c-490b-ba73-e02f0b4a8c1f"
                },
                {
                    "fields": [],
                    "imports": [
                        "Alertmanager Watchdog"
                    ],
                    "object_name": "Alertmanager Watchdog",
                    "object_type": "object",
                    "uuid": "77b55942-043e-470a-96eb-072333c2c1c8"
                }
            ],
            "uuid": "179d70f0-bffb-49f7-bb46-75ef2a595253"
        },
        "Kubernetes": {
            "object_name": "Kubernetes",
            "object_type": "template",
            "services": [
                {
                    "fields": [],
                    "imports": [
                        "Alertmanager Alert"
                    ],
                    "object_name": "KubeAPIDown",
                    "object_type": "object",
                    "uuid": "e0b46180-b4ea-41c7-ad39-4718ea6a2918",
                    "vars": {
                        "alertmanager_alertname": "KubeAPIDown"
                    }
                },
                {
                    "fields": [],
                    "groups": [
                        "Kubernetes"
                    ],
                    "imports": [
                        "Alertmanager Alert"
                    ],
                    "object_name": "KubeNodeNotReady",
                    "object_type": "object",
                    "uuid": "7c3911bd-5204-4141-858e-1dab9653ae12",
                    "vars": {
                        "alertmanager_alertname": "KubeNodeNotReady"
                    }
                }
            ],
            "uuid": "625a6089-49c7-4e23-8c57-5694fce51cb2"
        }
    },
    "DataList": {
        "alertmanager": {
            "entries": [],
            "list_name": "alertmanager",
            "owner": "admin",
            "uuid": "611ca65d-98f2-4dd6-b038-ad09fbc3d2e3"
        }
    },
    "Basket": {
        "alertmanager": {
            "basket_name": "alertmanager",
            "objects": {
                "Command": true,
                "HostGroup": true,
                "HostTemplate": true,
                "ServiceGroup": true,
                "ServiceTemplate": true,
                "ServiceSet": true,
                "DataList": true,
                "Basket": true
            },
            "owner_type": "user",
            "owner_value": "admin",
            "uuid": "3fb27941-8330-212b-2632-3e24d5258fa5"
        }
    },
    "Datafield": {
        "16": {
            "uuid": "89cbf50b-dd69-4c1a-bd0d-b826768bec9e",
            "varname": "alertmanager_server_uri",
            "caption": "Alertmanager Server URI",
            "description": "URI of the API Endpoint",
            "datatype": "Icinga\\Module\\Director\\DataType\\DataTypeString",
            "format": null,
            "settings": {
                "visibility": "visible"
            },
            "category": "Alertmanager"
        },
        "17": {
            "uuid": "2de4f7f1-e1d8-4b2e-84bf-5dcb4eba68f0",
            "varname": "alertmanager_token",
            "caption": "Alertmanager Token",
            "description": "Bearer Token",
            "datatype": "Icinga\\Module\\Director\\DataType\\DataTypeString",
            "format": null,
            "settings": {
                "rename_vars": "y",
                "visibility": "visible"
            },
            "category": "Alertmanager"
        },
        "19": {
            "uuid": "3ea22229-cd3f-4d76-a21e-9e0e2eab3567",
            "varname": "alertmanager_alertname",
            "caption": "Alertname",
            "description": "Alertname",
            "datatype": "Icinga\\Module\\Director\\DataType\\DataTypeString",
            "format": null,
            "settings": {
                "visibility": "visible"
            },
            "category": "Alertmanager"
        },
        "20": {
            "uuid": "516fc36d-b074-4463-9ef5-e7745f5d0cc8",
            "varname": "alertmanager_query",
            "caption": "Alertmanager Query",
            "description": "Query to execute https://github.com/prometheus/alertmanager\r\nSamples:\r\nnamespace=\"icinga\"\r\nnamespace=~\".*\"",
            "datatype": "Icinga\\Module\\Director\\DataType\\DataTypeString",
            "format": null,
            "settings": {
                "visibility": "visible"
            },
            "category": "Alertmanager"
        },
        "18": {
            "uuid": "337f9ba3-1890-4689-955a-28d8f53f1b2f",
            "varname": "kubernetes_token",
            "caption": "Kubernetes cluster admin token",
            "description": null,
            "datatype": "Icinga\\Module\\Director\\DataType\\DataTypeString",
            "format": null,
            "settings": {
                "visibility": "hidden"
            },
            "category": "Kubernetes"
        }
    },
    "DatafieldCategory": {
        "Alertmanager": {
            "category_name": "Alertmanager",
            "description": null,
            "originalId": "7"
        },
        "Kubernetes": {
            "category_name": "Kubernetes",
            "description": null,
            "originalId": "8"
        }
    }
}